[13-Dec-2018 10:40:31 UTC] PHP Notice:  Undefined variable: username in /home/ubuntu/workspace/leren-werken-met-pdo/public/create.php on line 15
[13-Dec-2018 10:40:31 UTC] PHP Fatal error:  Uncaught PDOException: SQLSTATE[HY000] [1045] Access denied for user ''@'localhost' (using password: NO) in /home/ubuntu/workspace/leren-werken-met-pdo/public/create.php:15
Stack trace:
#0 /home/ubuntu/workspace/leren-werken-met-pdo/public/create.php(15): PDO->__construct('mysql:host=loca...', NULL, '', Array)
#1 {main}
  thrown in /home/ubuntu/workspace/leren-werken-met-pdo/public/create.php on line 15
[13-Dec-2018 10:42:05 UTC] PHP Notice:  Undefined variable: username in /home/ubuntu/workspace/leren-werken-met-pdo/public/create.php on line 15
[13-Dec-2018 10:42:05 UTC] PHP Fatal error:  Uncaught PDOException: SQLSTATE[HY000] [1045] Access denied for user ''@'localhost' (using password: NO) in /home/ubuntu/workspace/leren-werken-met-pdo/public/create.php:15
Stack trace:
#0 /home/ubuntu/workspace/leren-werken-met-pdo/public/create.php(15): PDO->__construct('mysql:host=loca...', NULL, '', Array)
#1 {main}
  thrown in /home/ubuntu/workspace/leren-werken-met-pdo/public/create.php on line 15
[13-Dec-2018 10:43:12 UTC] PHP Notice:  Undefined variable: username in /home/ubuntu/workspace/leren-werken-met-pdo/public/create.php on line 15
[13-Dec-2018 10:43:12 UTC] PHP Fatal error:  Uncaught PDOException: SQLSTATE[HY000] [1045] Access denied for user ''@'localhost' (using password: NO) in /home/ubuntu/workspace/leren-werken-met-pdo/public/create.php:15
Stack trace:
#0 /home/ubuntu/workspace/leren-werken-met-pdo/public/create.php(15): PDO->__construct('mysql:host=loca...', NULL, '', Array)
#1 {main}
  thrown in /home/ubuntu/workspace/leren-werken-met-pdo/public/create.php on line 15
[13-Dec-2018 10:44:11 UTC] PHP Fatal error:  Uncaught PDOException: SQLSTATE[42S02]: Base table or view not found: 1146 Table 'TaniaRascia.users' doesn't exist in /home/ubuntu/workspace/leren-werken-met-pdo/public/create.php:22
Stack trace:
#0 /home/ubuntu/workspace/leren-werken-met-pdo/public/create.php(22): PDOStatement->execute()
#1 {main}
  thrown in /home/ubuntu/workspace/leren-werken-met-pdo/public/create.php on line 22
[13-Dec-2018 10:45:40 UTC] PHP Fatal error:  Uncaught PDOException: SQLSTATE[42S02]: Base table or view not found: 1146 Table 'TaniaRascia.users' doesn't exist in /home/ubuntu/workspace/leren-werken-met-pdo/public/create.php:22
Stack trace:
#0 /home/ubuntu/workspace/leren-werken-met-pdo/public/create.php(22): PDOStatement->execute()
#1 {main}
  thrown in /home/ubuntu/workspace/leren-werken-met-pdo/public/create.php on line 22
[13-Dec-2018 10:46:25 UTC] PHP Fatal error:  Uncaught PDOException: SQLSTATE[23000]: Integrity constraint violation: 1048 Column 'FirstName' cannot be null in /home/ubuntu/workspace/leren-werken-met-pdo/public/create.php:22
Stack trace:
#0 /home/ubuntu/workspace/leren-werken-met-pdo/public/create.php(22): PDOStatement->execute()
#1 {main}
  thrown in /home/ubuntu/workspace/leren-werken-met-pdo/public/create.php on line 22
[13-Dec-2018 10:46:39 UTC] PHP Fatal error:  Uncaught PDOException: SQLSTATE[23000]: Integrity constraint violation: 1048 Column 'FirstName' cannot be null in /home/ubuntu/workspace/leren-werken-met-pdo/public/create.php:22
Stack trace:
#0 /home/ubuntu/workspace/leren-werken-met-pdo/public/create.php(22): PDOStatement->execute()
#1 {main}
  thrown in /home/ubuntu/workspace/leren-werken-met-pdo/public/create.php on line 22
[13-Dec-2018 10:48:38 UTC] PHP Fatal error:  Uncaught PDOException: SQLSTATE[23000]: Integrity constraint violation: 1048 Column 'FirstName' cannot be null in /home/ubuntu/workspace/leren-werken-met-pdo/public/create.php:22
Stack trace:
#0 /home/ubuntu/workspace/leren-werken-met-pdo/public/create.php(22): PDOStatement->execute()
#1 {main}
  thrown in /home/ubuntu/workspace/leren-werken-met-pdo/public/create.php on line 22
[13-Dec-2018 10:54:55 UTC] PHP Fatal error:  Uncaught PDOException: SQLSTATE[23000]: Integrity constraint violation: 1048 Column 'FirstName' cannot be null in /home/ubuntu/workspace/leren-werken-met-pdo/public/create.php:22
Stack trace:
#0 /home/ubuntu/workspace/leren-werken-met-pdo/public/create.php(22): PDOStatement->execute()
#1 {main}
  thrown in /home/ubuntu/workspace/leren-werken-met-pdo/public/create.php on line 22
[13-Dec-2018 10:57:45 UTC] PHP Fatal error:  Uncaught PDOException: SQLSTATE[23000]: Integrity constraint violation: 1048 Column 'FirstName' cannot be null in /home/ubuntu/workspace/leren-werken-met-pdo/public/create.php:22
Stack trace:
#0 /home/ubuntu/workspace/leren-werken-met-pdo/public/create.php(22): PDOStatement->execute()
#1 {main}
  thrown in /home/ubuntu/workspace/leren-werken-met-pdo/public/create.php on line 22
[13-Dec-2018 10:59:48 UTC] PHP Warning:  include(../common.php): failed to open stream: No such file or directory in /home/ubuntu/workspace/leren-werken-met-pdo/public/create.php on line 6
[13-Dec-2018 10:59:48 UTC] PHP Warning:  include(): Failed opening '../common.php' for inclusion (include_path='.:/usr/share/php') in /home/ubuntu/workspace/leren-werken-met-pdo/public/create.php on line 6
[13-Dec-2018 10:59:48 UTC] PHP Fatal error:  Uncaught Error: Call to undefined function escape() in /home/ubuntu/workspace/leren-werken-met-pdo/public/create.php:8
Stack trace:
#0 {main}
  thrown in /home/ubuntu/workspace/leren-werken-met-pdo/public/create.php on line 8
[13-Dec-2018 11:01:06 UTC] PHP Warning:  include(../common.php): failed to open stream: No such file or directory in /home/ubuntu/workspace/leren-werken-met-pdo/public/create.php on line 6
[13-Dec-2018 11:01:06 UTC] PHP Warning:  include(): Failed opening '../common.php' for inclusion (include_path='.:/usr/share/php') in /home/ubuntu/workspace/leren-werken-met-pdo/public/create.php on line 6
[13-Dec-2018 11:01:06 UTC] PHP Fatal error:  Uncaught Error: Call to undefined function escape() in /home/ubuntu/workspace/leren-werken-met-pdo/public/create.php:8
Stack trace:
#0 {main}
  thrown in /home/ubuntu/workspace/leren-werken-met-pdo/public/create.php on line 8
[13-Dec-2018 11:01:10 UTC] PHP Warning:  include(../common.php): failed to open stream: No such file or directory in /home/ubuntu/workspace/leren-werken-met-pdo/public/create.php on line 6
[13-Dec-2018 11:01:10 UTC] PHP Warning:  include(): Failed opening '../common.php' for inclusion (include_path='.:/usr/share/php') in /home/ubuntu/workspace/leren-werken-met-pdo/public/create.php on line 6
[13-Dec-2018 11:01:10 UTC] PHP Fatal error:  Uncaught Error: Call to undefined function escape() in /home/ubuntu/workspace/leren-werken-met-pdo/public/create.php:8
Stack trace:
#0 {main}
  thrown in /home/ubuntu/workspace/leren-werken-met-pdo/public/create.php on line 8
[13-Dec-2018 11:01:56 UTC] PHP Warning:  include(../common.php): failed to open stream: No such file or directory in /home/ubuntu/workspace/leren-werken-met-pdo/public/create.php on line 6
[13-Dec-2018 11:01:56 UTC] PHP Warning:  include(): Failed opening '../common.php' for inclusion (include_path='.:/usr/share/php') in /home/ubuntu/workspace/leren-werken-met-pdo/public/create.php on line 6
[13-Dec-2018 11:01:56 UTC] PHP Fatal error:  Uncaught Error: Call to undefined function escape() in /home/ubuntu/workspace/leren-werken-met-pdo/public/create.php:8
Stack trace:
#0 {main}
  thrown in /home/ubuntu/workspace/leren-werken-met-pdo/public/create.php on line 8
